transactionId,amount,currencyCode,transactionDate,status
Inv-001,1232.312,USD,20/02/2019 12:33:16,Approved
Inv-002,13.2,INR,01/12/2020 07:33:16,Rejected
Inv-003,32.312,AUD,06/04/2018 12:33:16,Approved
Inv-004,63.2,ZMW,01/01/2020 07:33:16,Finished
Inv-005,832.312,WST,25/09/2019 12:33:16,Approved
Inv-006,33.2,INR,02/11/2021 07:33:16,Rejected
Inv-007,672.312,USD,18/05/2019 12:33:16,Finished
Inv-008,23,USD,29/03/2028 07:33:16,Approved